<?xml version="1.0" encoding="utf-8"  standalone="no"?>
<svg 
 width="600" height="480"
 viewBox="0 0 600 480"
 xmlns="http://www.w3.org/2000/svg"
 xmlns:xlink="http://www.w3.org/1999/xlink"
>

<title>Gnuplot</title>
<desc>Produced by GNUPLOT 5.4 patchlevel 3 </desc>

<g id="gnuplot_canvas">

<rect x="0" y="0" width="600" height="480" fill="none"/>
<defs>

	<circle id='gpDot' r='0.5' stroke-width='0.5' stroke='currentColor'/>
	<path id='gpPt0' stroke-width='0.222' stroke='currentColor' d='M-1,0 h2 M0,-1 v2'/>
	<path id='gpPt1' stroke-width='0.222' stroke='currentColor' d='M-1,-1 L1,1 M1,-1 L-1,1'/>
	<path id='gpPt2' stroke-width='0.222' stroke='currentColor' d='M-1,0 L1,0 M0,-1 L0,1 M-1,-1 L1,1 M-1,1 L1,-1'/>
	<rect id='gpPt3' stroke-width='0.222' stroke='currentColor' x='-1' y='-1' width='2' height='2'/>
	<rect id='gpPt4' stroke-width='0.222' stroke='currentColor' fill='currentColor' x='-1' y='-1' width='2' height='2'/>
	<circle id='gpPt5' stroke-width='0.222' stroke='currentColor' cx='0' cy='0' r='1'/>
	<use xlink:href='#gpPt5' id='gpPt6' fill='currentColor' stroke='none'/>
	<path id='gpPt7' stroke-width='0.222' stroke='currentColor' d='M0,-1.33 L-1.33,0.67 L1.33,0.67 z'/>
	<use xlink:href='#gpPt7' id='gpPt8' fill='currentColor' stroke='none'/>
	<use xlink:href='#gpPt7' id='gpPt9' stroke='currentColor' transform='rotate(180)'/>
	<use xlink:href='#gpPt9' id='gpPt10' fill='currentColor' stroke='none'/>
	<use xlink:href='#gpPt3' id='gpPt11' stroke='currentColor' transform='rotate(45)'/>
	<use xlink:href='#gpPt11' id='gpPt12' fill='currentColor' stroke='none'/>
	<path id='gpPt13' stroke-width='0.222' stroke='currentColor' d='M0,1.330 L1.265,0.411 L0.782,-1.067 L-0.782,-1.076 L-1.265,0.411 z'/>
	<use xlink:href='#gpPt13' id='gpPt14' fill='currentColor' stroke='none'/>
	<filter id='textbox' filterUnits='objectBoundingBox' x='0' y='0' height='1' width='1'>
	  <feFlood flood-color='white' flood-opacity='1' result='bgnd'/>
	  <feComposite in='SourceGraphic' in2='bgnd' operator='atop'/>
	</filter>
	<filter id='greybox' filterUnits='objectBoundingBox' x='0' y='0' height='1' width='1'>
	  <feFlood flood-color='lightgrey' flood-opacity='1' result='grey'/>
	  <feComposite in='SourceGraphic' in2='grey' operator='atop'/>
	</filter>
</defs>
<g fill="none" color="white" stroke="currentColor" stroke-width="1.00" stroke-linecap="butt" stroke-linejoin="miter">
</g>
<g fill="none" color="black" stroke="currentColor" stroke-width="1.00" stroke-linecap="butt" stroke-linejoin="miter">
	<path stroke='black'  d='M72.53,422.40 L81.53,422.40 M574.82,422.40 L565.82,422.40  '/>	<g transform="translate(64.14,426.30)" stroke="none" fill="black" font-family="Arial" font-size="12.00"  text-anchor="end">
		<text><tspan font-family="Arial" > 0</tspan></text>
	</g>
</g>
<g fill="none" color="black" stroke="currentColor" stroke-width="1.00" stroke-linecap="butt" stroke-linejoin="miter">
	<path stroke='black'  d='M72.53,341.52 L81.53,341.52 M574.82,341.52 L565.82,341.52  '/>	<g transform="translate(64.14,345.42)" stroke="none" fill="black" font-family="Arial" font-size="12.00"  text-anchor="end">
		<text><tspan font-family="Arial" > 0.2</tspan></text>
	</g>
</g>
<g fill="none" color="black" stroke="currentColor" stroke-width="1.00" stroke-linecap="butt" stroke-linejoin="miter">
	<path stroke='black'  d='M72.53,260.64 L81.53,260.64 M574.82,260.64 L565.82,260.64  '/>	<g transform="translate(64.14,264.54)" stroke="none" fill="black" font-family="Arial" font-size="12.00"  text-anchor="end">
		<text><tspan font-family="Arial" > 0.4</tspan></text>
	</g>
</g>
<g fill="none" color="black" stroke="currentColor" stroke-width="1.00" stroke-linecap="butt" stroke-linejoin="miter">
	<path stroke='black'  d='M72.53,179.77 L81.53,179.77 M574.82,179.77 L565.82,179.77  '/>	<g transform="translate(64.14,183.67)" stroke="none" fill="black" font-family="Arial" font-size="12.00"  text-anchor="end">
		<text><tspan font-family="Arial" > 0.6</tspan></text>
	</g>
</g>
<g fill="none" color="black" stroke="currentColor" stroke-width="1.00" stroke-linecap="butt" stroke-linejoin="miter">
	<path stroke='black'  d='M72.53,98.89 L81.53,98.89 M574.82,98.89 L565.82,98.89  '/>	<g transform="translate(64.14,102.79)" stroke="none" fill="black" font-family="Arial" font-size="12.00"  text-anchor="end">
		<text><tspan font-family="Arial" > 0.8</tspan></text>
	</g>
</g>
<g fill="none" color="black" stroke="currentColor" stroke-width="1.00" stroke-linecap="butt" stroke-linejoin="miter">
	<path stroke='black'  d='M72.53,18.01 L81.53,18.01 M574.82,18.01 L565.82,18.01  '/>	<g transform="translate(64.14,21.91)" stroke="none" fill="black" font-family="Arial" font-size="12.00"  text-anchor="end">
		<text><tspan font-family="Arial" > 1</tspan></text>
	</g>
</g>
<g fill="none" color="black" stroke="currentColor" stroke-width="1.00" stroke-linecap="butt" stroke-linejoin="miter">
	<path stroke='black'  d='M72.53,422.40 L72.53,413.40 M72.53,18.01 L72.53,27.01  '/>	<g transform="translate(72.53,444.30)" stroke="none" fill="black" font-family="Arial" font-size="12.00"  text-anchor="middle">
		<text><tspan font-family="Arial" > 0</tspan></text>
	</g>
</g>
<g fill="none" color="black" stroke="currentColor" stroke-width="1.00" stroke-linecap="butt" stroke-linejoin="miter">
	<path stroke='black'  d='M135.32,422.40 L135.32,413.40 M135.32,18.01 L135.32,27.01  '/>	<g transform="translate(135.32,444.30)" stroke="none" fill="black" font-family="Arial" font-size="12.00"  text-anchor="middle">
		<text><tspan font-family="Arial" > 0.5</tspan></text>
	</g>
</g>
<g fill="none" color="black" stroke="currentColor" stroke-width="1.00" stroke-linecap="butt" stroke-linejoin="miter">
	<path stroke='black'  d='M198.10,422.40 L198.10,413.40 M198.10,18.01 L198.10,27.01  '/>	<g transform="translate(198.10,444.30)" stroke="none" fill="black" font-family="Arial" font-size="12.00"  text-anchor="middle">
		<text><tspan font-family="Arial" > 1</tspan></text>
	</g>
</g>
<g fill="none" color="black" stroke="currentColor" stroke-width="1.00" stroke-linecap="butt" stroke-linejoin="miter">
	<path stroke='black'  d='M260.89,422.40 L260.89,413.40 M260.89,18.01 L260.89,27.01  '/>	<g transform="translate(260.89,444.30)" stroke="none" fill="black" font-family="Arial" font-size="12.00"  text-anchor="middle">
		<text><tspan font-family="Arial" > 1.5</tspan></text>
	</g>
</g>
<g fill="none" color="black" stroke="currentColor" stroke-width="1.00" stroke-linecap="butt" stroke-linejoin="miter">
	<path stroke='black'  d='M323.68,422.40 L323.68,413.40 M323.68,18.01 L323.68,27.01  '/>	<g transform="translate(323.68,444.30)" stroke="none" fill="black" font-family="Arial" font-size="12.00"  text-anchor="middle">
		<text><tspan font-family="Arial" > 2</tspan></text>
	</g>
</g>
<g fill="none" color="black" stroke="currentColor" stroke-width="1.00" stroke-linecap="butt" stroke-linejoin="miter">
	<path stroke='black'  d='M386.46,422.40 L386.46,413.40 M386.46,18.01 L386.46,27.01  '/>	<g transform="translate(386.46,444.30)" stroke="none" fill="black" font-family="Arial" font-size="12.00"  text-anchor="middle">
		<text><tspan font-family="Arial" > 2.5</tspan></text>
	</g>
</g>
<g fill="none" color="black" stroke="currentColor" stroke-width="1.00" stroke-linecap="butt" stroke-linejoin="miter">
	<path stroke='black'  d='M449.25,422.40 L449.25,413.40 M449.25,18.01 L449.25,27.01  '/>	<g transform="translate(449.25,444.30)" stroke="none" fill="black" font-family="Arial" font-size="12.00"  text-anchor="middle">
		<text><tspan font-family="Arial" > 3</tspan></text>
	</g>
</g>
<g fill="none" color="black" stroke="currentColor" stroke-width="1.00" stroke-linecap="butt" stroke-linejoin="miter">
	<path stroke='black'  d='M512.03,422.40 L512.03,413.40 M512.03,18.01 L512.03,27.01  '/>	<g transform="translate(512.03,444.30)" stroke="none" fill="black" font-family="Arial" font-size="12.00"  text-anchor="middle">
		<text><tspan font-family="Arial" > 3.5</tspan></text>
	</g>
</g>
<g fill="none" color="black" stroke="currentColor" stroke-width="1.00" stroke-linecap="butt" stroke-linejoin="miter">
	<path stroke='black'  d='M574.82,422.40 L574.82,413.40 M574.82,18.01 L574.82,27.01  '/>	<g transform="translate(574.82,444.30)" stroke="none" fill="black" font-family="Arial" font-size="12.00"  text-anchor="middle">
		<text><tspan font-family="Arial" > 4</tspan></text>
	</g>
</g>
<g fill="none" color="black" stroke="currentColor" stroke-width="1.00" stroke-linecap="butt" stroke-linejoin="miter">
</g>
<g fill="none" color="black" stroke="currentColor" stroke-width="1.00" stroke-linecap="butt" stroke-linejoin="miter">
	<path stroke='black'  d='M72.53,18.01 L72.53,422.40 L574.82,422.40 L574.82,18.01 L72.53,18.01 Z  '/></g>
<g fill="none" color="black" stroke="currentColor" stroke-width="1.00" stroke-linecap="butt" stroke-linejoin="miter">
	<g transform="translate(19.18,220.21) rotate(270)" stroke="none" fill="black" font-family="Arial" font-size="12.00"  text-anchor="middle">
		<text><tspan font-family="Arial" >Value</tspan></text>
	</g>
</g>
<g fill="none" color="black" stroke="currentColor" stroke-width="1.00" stroke-linecap="butt" stroke-linejoin="miter">
	<g transform="translate(323.67,471.30)" stroke="none" fill="black" font-family="Arial" font-size="12.00"  text-anchor="middle">
		<text><tspan font-family="Arial" >Frames</tspan></text>
	</g>
</g>
<g fill="none" color="black" stroke="currentColor" stroke-width="1.00" stroke-linecap="butt" stroke-linejoin="miter">
</g>
	<g id="gnuplot_plot_1" ><title>'envelope_with_value_changes.dat'</title>
<g fill="none" color="black" stroke="currentColor" stroke-width="1.00" stroke-linecap="butt" stroke-linejoin="miter">
	<g stroke='none' shape-rendering='crispEdges'>
		<polygon fill = 'rgb(148,   0, 211)' points = '74.61,420.72 76.70,419.04 78.78,417.37 80.87,415.69 82.95,414.01 85.04,412.33 87.12,410.65 89.21,408.97 91.29,407.30 93.38,405.62 95.46,403.94 97.54,402.26 99.63,400.58 101.71,398.90 103.80,397.23 105.88,395.55
107.97,393.87 110.05,392.19 112.14,390.51 114.22,388.84 116.30,387.16 118.39,385.48 120.47,383.80 122.56,382.12 124.64,380.44 126.73,378.77 128.81,377.09 130.90,375.41 132.98,373.73 135.07,372.05 137.15,370.38 139.23,368.70
141.32,367.02 143.40,365.34 145.49,363.66 147.57,361.98 149.66,360.31 151.74,358.63 153.83,356.95 155.91,355.27 157.99,353.59 160.08,351.91 162.16,350.24 164.25,348.56 166.33,346.88 168.42,345.20 170.50,343.52 172.59,341.85
174.67,340.17 176.76,338.49 178.84,336.81 180.92,335.13 183.01,333.45 185.09,331.78 187.18,330.10 189.26,328.42 191.35,326.74 193.43,325.06 195.52,323.39 197.60,321.71 199.68,20.56 201.77,419.04 203.85,415.69 205.94,412.33
208.02,408.97 210.11,405.62 212.19,402.26 214.28,398.90 216.36,395.55 218.45,392.19 220.53,388.84 222.61,385.48 224.70,382.12 226.78,378.77 228.87,375.41 230.95,372.05 233.04,368.70 235.12,365.34 237.21,361.98 239.29,358.63
241.37,355.27 243.46,351.91 245.54,348.56 247.63,345.20 249.71,341.85 251.80,338.49 253.88,335.13 255.97,331.78 258.05,328.42 260.14,325.06 262.22,321.71 264.30,318.35 266.39,314.99 268.47,311.64 270.56,308.28 272.64,304.92
274.73,301.57 276.81,298.21 278.90,294.86 280.98,291.50 283.06,288.14 285.15,284.79 287.23,281.43 289.32,278.07 291.40,274.72 293.49,271.36 295.57,268.00 297.66,264.65 299.74,261.29 301.83,257.93 303.91,254.58 305.99,251.22
308.08,247.87 310.16,244.51 312.25,241.15 314.33,237.80 316.42,234.44 318.50,231.08 320.59,227.73 322.67,224.37 324.75,221.01 326.84,417.37 328.92,412.33 331.01,407.30 333.09,402.26 335.18,397.23 337.26,392.19 339.35,387.16
341.43,382.12 343.52,377.09 345.60,372.05 347.68,367.02 349.77,361.98 351.85,356.95 353.94,351.91 356.02,346.88 358.11,341.85 360.19,336.81 362.28,331.78 364.36,326.74 366.44,321.71 368.53,316.67 370.61,311.64 372.70,306.60
374.78,301.57 376.87,296.53 378.95,291.50 381.04,286.46 383.12,281.43 385.21,276.39 387.29,271.36 389.37,266.33 391.46,261.29 393.54,256.26 395.63,251.22 397.71,246.19 399.80,241.15 401.88,236.12 403.97,231.08 406.05,226.05
408.14,221.01 410.22,215.98 412.30,210.94 414.39,205.91 416.47,200.88 418.56,195.84 420.64,190.81 422.73,185.77 424.81,180.74 426.90,175.70 428.98,170.67 431.06,165.63 433.15,160.60 435.23,155.56 437.32,150.53 439.40,145.49
441.49,140.46 443.57,135.42 445.66,130.39 447.74,125.36 449.83,120.32 451.91,415.69 453.99,408.97 456.08,402.26 458.16,395.55 460.25,388.84 462.33,382.12 464.42,375.41 466.50,368.70 468.59,361.98 470.67,355.27 472.75,348.56
474.84,341.85 476.92,335.13 479.01,328.42 481.09,321.71 483.18,314.99 485.26,308.28 487.35,301.57 489.43,294.86 491.52,288.14 493.60,281.43 495.68,274.72 497.77,268.00 499.85,261.29 501.94,254.58 504.02,247.87 506.11,241.15
508.19,234.44 510.28,227.73 512.36,221.01 514.44,214.30 516.53,207.59 518.61,200.88 520.70,194.16 522.78,187.45 524.87,180.74 526.95,174.02 529.04,167.31 531.12,160.60 533.21,153.89 535.29,147.17 537.37,140.46 539.46,133.75
541.54,127.03 543.63,120.32 545.71,113.61 547.80,106.89 549.88,100.18 551.97,93.47 554.05,86.76 556.13,80.04 558.22,73.33 560.30,66.62 562.39,59.90 564.47,53.19 566.56,46.48 568.64,39.77 570.73,33.05 572.81,26.34
572.81,422.40 74.61,422.40 '/>
	</g>
</g>
	</g>
<g fill="none" color="white" stroke="rgb(148,   0, 211)" stroke-width="2.00" stroke-linecap="butt" stroke-linejoin="miter">
</g>
<g fill="none" color="black" stroke="currentColor" stroke-width="2.00" stroke-linecap="butt" stroke-linejoin="miter">
</g>
<g fill="none" color="black" stroke="black" stroke-width="1.00" stroke-linecap="butt" stroke-linejoin="miter">
</g>
<g fill="none" color="black" stroke="currentColor" stroke-width="1.00" stroke-linecap="butt" stroke-linejoin="miter">
	<path stroke='black'  d='M72.53,18.01 L72.53,422.40 L574.82,422.40 L574.82,18.01 L72.53,18.01 Z  '/></g>
<g fill="none" color="black" stroke="currentColor" stroke-width="1.00" stroke-linecap="butt" stroke-linejoin="miter">
</g>
</g>
</svg>

