<?xml version="1.0" encoding="utf-8"  standalone="no"?>
<svg 
 width="600" height="480"
 viewBox="0 0 600 480"
 xmlns="http://www.w3.org/2000/svg"
 xmlns:xlink="http://www.w3.org/1999/xlink"
>

<title>Gnuplot</title>
<desc>Produced by GNUPLOT 5.4 patchlevel 3 </desc>

<g id="gnuplot_canvas">

<rect x="0" y="0" width="600" height="480" fill="none"/>
<defs>

	<circle id='gpDot' r='0.5' stroke-width='0.5' stroke='currentColor'/>
	<path id='gpPt0' stroke-width='0.222' stroke='currentColor' d='M-1,0 h2 M0,-1 v2'/>
	<path id='gpPt1' stroke-width='0.222' stroke='currentColor' d='M-1,-1 L1,1 M1,-1 L-1,1'/>
	<path id='gpPt2' stroke-width='0.222' stroke='currentColor' d='M-1,0 L1,0 M0,-1 L0,1 M-1,-1 L1,1 M-1,1 L1,-1'/>
	<rect id='gpPt3' stroke-width='0.222' stroke='currentColor' x='-1' y='-1' width='2' height='2'/>
	<rect id='gpPt4' stroke-width='0.222' stroke='currentColor' fill='currentColor' x='-1' y='-1' width='2' height='2'/>
	<circle id='gpPt5' stroke-width='0.222' stroke='currentColor' cx='0' cy='0' r='1'/>
	<use xlink:href='#gpPt5' id='gpPt6' fill='currentColor' stroke='none'/>
	<path id='gpPt7' stroke-width='0.222' stroke='currentColor' d='M0,-1.33 L-1.33,0.67 L1.33,0.67 z'/>
	<use xlink:href='#gpPt7' id='gpPt8' fill='currentColor' stroke='none'/>
	<use xlink:href='#gpPt7' id='gpPt9' stroke='currentColor' transform='rotate(180)'/>
	<use xlink:href='#gpPt9' id='gpPt10' fill='currentColor' stroke='none'/>
	<use xlink:href='#gpPt3' id='gpPt11' stroke='currentColor' transform='rotate(45)'/>
	<use xlink:href='#gpPt11' id='gpPt12' fill='currentColor' stroke='none'/>
	<path id='gpPt13' stroke-width='0.222' stroke='currentColor' d='M0,1.330 L1.265,0.411 L0.782,-1.067 L-0.782,-1.076 L-1.265,0.411 z'/>
	<use xlink:href='#gpPt13' id='gpPt14' fill='currentColor' stroke='none'/>
	<filter id='textbox' filterUnits='objectBoundingBox' x='0' y='0' height='1' width='1'>
	  <feFlood flood-color='white' flood-opacity='1' result='bgnd'/>
	  <feComposite in='SourceGraphic' in2='bgnd' operator='atop'/>
	</filter>
	<filter id='greybox' filterUnits='objectBoundingBox' x='0' y='0' height='1' width='1'>
	  <feFlood flood-color='lightgrey' flood-opacity='1' result='grey'/>
	  <feComposite in='SourceGraphic' in2='grey' operator='atop'/>
	</filter>
</defs>
<g fill="none" color="white" stroke="currentColor" stroke-width="1.00" stroke-linecap="butt" stroke-linejoin="miter">
</g>
<g fill="none" color="black" stroke="currentColor" stroke-width="1.00" stroke-linecap="butt" stroke-linejoin="miter">
	<path stroke='black'  d='M72.53,422.40 L81.53,422.40 M574.82,422.40 L565.82,422.40  '/>	<g transform="translate(64.14,426.30)" stroke="none" fill="black" font-family="Arial" font-size="12.00"  text-anchor="end">
		<text><tspan font-family="Arial" > 0</tspan></text>
	</g>
</g>
<g fill="none" color="black" stroke="currentColor" stroke-width="1.00" stroke-linecap="butt" stroke-linejoin="miter">
	<path stroke='black'  d='M72.53,341.52 L81.53,341.52 M574.82,341.52 L565.82,341.52  '/>	<g transform="translate(64.14,345.42)" stroke="none" fill="black" font-family="Arial" font-size="12.00"  text-anchor="end">
		<text><tspan font-family="Arial" > 0.2</tspan></text>
	</g>
</g>
<g fill="none" color="black" stroke="currentColor" stroke-width="1.00" stroke-linecap="butt" stroke-linejoin="miter">
	<path stroke='black'  d='M72.53,260.64 L81.53,260.64 M574.82,260.64 L565.82,260.64  '/>	<g transform="translate(64.14,264.54)" stroke="none" fill="black" font-family="Arial" font-size="12.00"  text-anchor="end">
		<text><tspan font-family="Arial" > 0.4</tspan></text>
	</g>
</g>
<g fill="none" color="black" stroke="currentColor" stroke-width="1.00" stroke-linecap="butt" stroke-linejoin="miter">
	<path stroke='black'  d='M72.53,179.77 L81.53,179.77 M574.82,179.77 L565.82,179.77  '/>	<g transform="translate(64.14,183.67)" stroke="none" fill="black" font-family="Arial" font-size="12.00"  text-anchor="end">
		<text><tspan font-family="Arial" > 0.6</tspan></text>
	</g>
</g>
<g fill="none" color="black" stroke="currentColor" stroke-width="1.00" stroke-linecap="butt" stroke-linejoin="miter">
	<path stroke='black'  d='M72.53,98.89 L81.53,98.89 M574.82,98.89 L565.82,98.89  '/>	<g transform="translate(64.14,102.79)" stroke="none" fill="black" font-family="Arial" font-size="12.00"  text-anchor="end">
		<text><tspan font-family="Arial" > 0.8</tspan></text>
	</g>
</g>
<g fill="none" color="black" stroke="currentColor" stroke-width="1.00" stroke-linecap="butt" stroke-linejoin="miter">
	<path stroke='black'  d='M72.53,18.01 L81.53,18.01 M574.82,18.01 L565.82,18.01  '/>	<g transform="translate(64.14,21.91)" stroke="none" fill="black" font-family="Arial" font-size="12.00"  text-anchor="end">
		<text><tspan font-family="Arial" > 1</tspan></text>
	</g>
</g>
<g fill="none" color="black" stroke="currentColor" stroke-width="1.00" stroke-linecap="butt" stroke-linejoin="miter">
	<path stroke='black'  d='M72.53,422.40 L72.53,413.40 M72.53,18.01 L72.53,27.01  '/>	<g transform="translate(72.53,444.30)" stroke="none" fill="black" font-family="Arial" font-size="12.00"  text-anchor="middle">
		<text><tspan font-family="Arial" > 0</tspan></text>
	</g>
</g>
<g fill="none" color="black" stroke="currentColor" stroke-width="1.00" stroke-linecap="butt" stroke-linejoin="miter">
	<path stroke='black'  d='M135.32,422.40 L135.32,413.40 M135.32,18.01 L135.32,27.01  '/>	<g transform="translate(135.32,444.30)" stroke="none" fill="black" font-family="Arial" font-size="12.00"  text-anchor="middle">
		<text><tspan font-family="Arial" > 0.5</tspan></text>
	</g>
</g>
<g fill="none" color="black" stroke="currentColor" stroke-width="1.00" stroke-linecap="butt" stroke-linejoin="miter">
	<path stroke='black'  d='M198.10,422.40 L198.10,413.40 M198.10,18.01 L198.10,27.01  '/>	<g transform="translate(198.10,444.30)" stroke="none" fill="black" font-family="Arial" font-size="12.00"  text-anchor="middle">
		<text><tspan font-family="Arial" > 1</tspan></text>
	</g>
</g>
<g fill="none" color="black" stroke="currentColor" stroke-width="1.00" stroke-linecap="butt" stroke-linejoin="miter">
	<path stroke='black'  d='M260.89,422.40 L260.89,413.40 M260.89,18.01 L260.89,27.01  '/>	<g transform="translate(260.89,444.30)" stroke="none" fill="black" font-family="Arial" font-size="12.00"  text-anchor="middle">
		<text><tspan font-family="Arial" > 1.5</tspan></text>
	</g>
</g>
<g fill="none" color="black" stroke="currentColor" stroke-width="1.00" stroke-linecap="butt" stroke-linejoin="miter">
	<path stroke='black'  d='M323.68,422.40 L323.68,413.40 M323.68,18.01 L323.68,27.01  '/>	<g transform="translate(323.68,444.30)" stroke="none" fill="black" font-family="Arial" font-size="12.00"  text-anchor="middle">
		<text><tspan font-family="Arial" > 2</tspan></text>
	</g>
</g>
<g fill="none" color="black" stroke="currentColor" stroke-width="1.00" stroke-linecap="butt" stroke-linejoin="miter">
	<path stroke='black'  d='M386.46,422.40 L386.46,413.40 M386.46,18.01 L386.46,27.01  '/>	<g transform="translate(386.46,444.30)" stroke="none" fill="black" font-family="Arial" font-size="12.00"  text-anchor="middle">
		<text><tspan font-family="Arial" > 2.5</tspan></text>
	</g>
</g>
<g fill="none" color="black" stroke="currentColor" stroke-width="1.00" stroke-linecap="butt" stroke-linejoin="miter">
	<path stroke='black'  d='M449.25,422.40 L449.25,413.40 M449.25,18.01 L449.25,27.01  '/>	<g transform="translate(449.25,444.30)" stroke="none" fill="black" font-family="Arial" font-size="12.00"  text-anchor="middle">
		<text><tspan font-family="Arial" > 3</tspan></text>
	</g>
</g>
<g fill="none" color="black" stroke="currentColor" stroke-width="1.00" stroke-linecap="butt" stroke-linejoin="miter">
	<path stroke='black'  d='M512.03,422.40 L512.03,413.40 M512.03,18.01 L512.03,27.01  '/>	<g transform="translate(512.03,444.30)" stroke="none" fill="black" font-family="Arial" font-size="12.00"  text-anchor="middle">
		<text><tspan font-family="Arial" > 3.5</tspan></text>
	</g>
</g>
<g fill="none" color="black" stroke="currentColor" stroke-width="1.00" stroke-linecap="butt" stroke-linejoin="miter">
	<path stroke='black'  d='M574.82,422.40 L574.82,413.40 M574.82,18.01 L574.82,27.01  '/>	<g transform="translate(574.82,444.30)" stroke="none" fill="black" font-family="Arial" font-size="12.00"  text-anchor="middle">
		<text><tspan font-family="Arial" > 4</tspan></text>
	</g>
</g>
<g fill="none" color="black" stroke="currentColor" stroke-width="1.00" stroke-linecap="butt" stroke-linejoin="miter">
</g>
<g fill="none" color="black" stroke="currentColor" stroke-width="1.00" stroke-linecap="butt" stroke-linejoin="miter">
	<path stroke='black'  d='M72.53,18.01 L72.53,422.40 L574.82,422.40 L574.82,18.01 L72.53,18.01 Z  '/></g>
<g fill="none" color="black" stroke="currentColor" stroke-width="1.00" stroke-linecap="butt" stroke-linejoin="miter">
	<g transform="translate(19.18,220.21) rotate(270)" stroke="none" fill="black" font-family="Arial" font-size="12.00"  text-anchor="middle">
		<text><tspan font-family="Arial" >Value</tspan></text>
	</g>
</g>
<g fill="none" color="black" stroke="currentColor" stroke-width="1.00" stroke-linecap="butt" stroke-linejoin="miter">
	<g transform="translate(323.67,471.30)" stroke="none" fill="black" font-family="Arial" font-size="12.00"  text-anchor="middle">
		<text><tspan font-family="Arial" >Frames</tspan></text>
	</g>
</g>
<g fill="none" color="black" stroke="currentColor" stroke-width="1.00" stroke-linecap="butt" stroke-linejoin="miter">
</g>
	<g id="gnuplot_plot_1" ><title>'saw_oscillator.dat'</title>
<g fill="none" color="black" stroke="currentColor" stroke-width="1.00" stroke-linecap="butt" stroke-linejoin="miter">
	<g stroke='none' shape-rendering='crispEdges'>
		<polygon fill = 'rgb(148,   0, 211)' points = '74.61,415.69 76.70,408.97 78.78,402.26 80.87,395.55 82.95,388.84 85.04,382.12 87.12,375.41 89.21,368.70 91.29,361.98 93.38,355.27 95.46,348.56 97.54,341.85 99.63,335.13 101.71,328.42 103.80,321.71 105.88,314.99
107.97,308.28 110.05,301.57 112.14,294.86 114.22,288.14 116.30,281.43 118.39,274.72 120.47,268.00 122.56,261.29 124.64,254.58 126.73,247.87 128.81,241.15 130.90,234.44 132.98,227.73 135.07,221.01 137.15,214.30 139.23,207.59
141.32,200.88 143.40,194.16 145.49,187.45 147.57,180.74 149.66,174.02 151.74,167.31 153.83,160.60 155.91,153.89 157.99,147.17 160.08,140.46 162.16,133.75 164.25,127.03 166.33,120.32 168.42,113.61 170.50,106.89 172.59,100.18
174.67,93.47 176.76,86.76 178.84,80.04 180.92,73.33 183.01,66.62 185.09,59.90 187.18,53.19 189.26,46.48 191.35,39.77 193.43,33.05 195.52,26.34 197.60,19.63 199.68,417.30 201.77,410.59 203.85,403.88 205.94,397.17
208.02,390.45 210.11,383.74 212.19,377.03 214.28,370.31 216.36,363.60 218.45,356.89 220.53,350.18 222.61,343.46 224.70,336.75 226.78,330.04 228.87,323.32 230.95,316.61 233.04,309.90 235.12,303.19 237.21,296.47 239.29,289.76
241.37,283.05 243.46,276.33 245.54,269.62 247.63,262.91 249.71,256.20 251.80,249.48 253.88,242.77 255.97,236.06 258.05,229.34 260.14,222.63 262.22,215.92 264.30,209.21 266.39,202.49 268.47,195.78 270.56,189.07 272.64,182.35
274.73,175.64 276.81,168.93 278.90,162.22 280.98,155.50 283.06,148.79 285.15,142.08 287.23,135.36 289.32,128.65 291.40,121.94 293.49,115.23 295.57,108.51 297.66,101.80 299.74,95.09 301.83,88.37 303.91,81.66 305.99,74.95
308.08,68.24 310.16,61.52 312.25,54.81 314.33,48.10 316.42,41.38 318.50,34.67 320.59,27.96 322.67,21.25 324.75,418.92 326.84,412.21 328.92,405.50 331.01,398.78 333.09,392.07 335.18,385.36 337.26,378.65 339.35,371.93
341.43,365.22 343.52,358.51 345.60,351.79 347.68,345.08 349.77,338.37 351.85,331.65 353.94,324.94 356.02,318.23 358.11,311.52 360.19,304.80 362.28,298.09 364.36,291.38 366.44,284.66 368.53,277.95 370.61,271.24 372.70,264.53
374.78,257.81 376.87,251.10 378.95,244.39 381.04,237.67 383.12,230.96 385.21,224.25 387.29,217.54 389.37,210.82 391.46,204.11 393.54,197.40 395.63,190.68 397.71,183.97 399.80,177.26 401.88,170.55 403.97,163.83 406.05,157.12
408.14,150.41 410.22,143.69 412.30,136.98 414.39,130.27 416.47,123.56 418.56,116.84 420.64,110.13 422.73,103.42 424.81,96.70 426.90,89.99 428.98,83.28 431.06,76.57 433.15,69.85 435.23,63.14 437.32,56.43 439.40,49.71
441.49,43.00 443.57,36.29 445.66,29.58 447.74,22.86 449.83,420.54 451.91,413.83 453.99,407.11 456.08,400.40 458.16,393.69 460.25,386.98 462.33,380.26 464.42,373.55 466.50,366.84 468.59,360.12 470.67,353.41 472.75,346.70
474.84,339.99 476.92,333.27 479.01,326.56 481.09,319.85 483.18,313.13 485.26,306.42 487.35,299.71 489.43,293.00 491.52,286.28 493.60,279.57 495.68,272.86 497.77,266.14 499.85,259.43 501.94,252.72 504.02,246.01 506.11,239.29
508.19,232.58 510.28,225.87 512.36,219.15 514.44,212.44 516.53,205.73 518.61,199.01 520.70,192.30 522.78,185.59 524.87,178.88 526.95,172.16 529.04,165.45 531.12,158.74 533.21,152.02 535.29,145.31 537.37,138.60 539.46,131.89
541.54,125.17 543.63,118.46 545.71,111.75 547.80,105.03 549.88,98.32 551.97,91.61 554.05,84.90 556.13,78.18 558.22,71.47 560.30,64.76 562.39,58.04 564.47,51.33 566.56,44.62 568.64,37.91 570.73,31.19 572.81,24.48
572.81,422.40 74.61,422.40 '/>
	</g>
</g>
	</g>
<g fill="none" color="white" stroke="rgb(148,   0, 211)" stroke-width="2.00" stroke-linecap="butt" stroke-linejoin="miter">
</g>
<g fill="none" color="black" stroke="currentColor" stroke-width="2.00" stroke-linecap="butt" stroke-linejoin="miter">
</g>
<g fill="none" color="black" stroke="black" stroke-width="1.00" stroke-linecap="butt" stroke-linejoin="miter">
</g>
<g fill="none" color="black" stroke="currentColor" stroke-width="1.00" stroke-linecap="butt" stroke-linejoin="miter">
	<path stroke='black'  d='M72.53,18.01 L72.53,422.40 L574.82,422.40 L574.82,18.01 L72.53,18.01 Z  '/></g>
<g fill="none" color="black" stroke="currentColor" stroke-width="1.00" stroke-linecap="butt" stroke-linejoin="miter">
</g>
</g>
</svg>

