<?xml version="1.0" encoding="utf-8"  standalone="no"?>
<svg 
 width="600" height="480"
 viewBox="0 0 600 480"
 xmlns="http://www.w3.org/2000/svg"
 xmlns:xlink="http://www.w3.org/1999/xlink"
>

<title>Gnuplot</title>
<desc>Produced by GNUPLOT 5.4 patchlevel 3 </desc>

<g id="gnuplot_canvas">

<rect x="0" y="0" width="600" height="480" fill="none"/>
<defs>

	<circle id='gpDot' r='0.5' stroke-width='0.5' stroke='currentColor'/>
	<path id='gpPt0' stroke-width='0.222' stroke='currentColor' d='M-1,0 h2 M0,-1 v2'/>
	<path id='gpPt1' stroke-width='0.222' stroke='currentColor' d='M-1,-1 L1,1 M1,-1 L-1,1'/>
	<path id='gpPt2' stroke-width='0.222' stroke='currentColor' d='M-1,0 L1,0 M0,-1 L0,1 M-1,-1 L1,1 M-1,1 L1,-1'/>
	<rect id='gpPt3' stroke-width='0.222' stroke='currentColor' x='-1' y='-1' width='2' height='2'/>
	<rect id='gpPt4' stroke-width='0.222' stroke='currentColor' fill='currentColor' x='-1' y='-1' width='2' height='2'/>
	<circle id='gpPt5' stroke-width='0.222' stroke='currentColor' cx='0' cy='0' r='1'/>
	<use xlink:href='#gpPt5' id='gpPt6' fill='currentColor' stroke='none'/>
	<path id='gpPt7' stroke-width='0.222' stroke='currentColor' d='M0,-1.33 L-1.33,0.67 L1.33,0.67 z'/>
	<use xlink:href='#gpPt7' id='gpPt8' fill='currentColor' stroke='none'/>
	<use xlink:href='#gpPt7' id='gpPt9' stroke='currentColor' transform='rotate(180)'/>
	<use xlink:href='#gpPt9' id='gpPt10' fill='currentColor' stroke='none'/>
	<use xlink:href='#gpPt3' id='gpPt11' stroke='currentColor' transform='rotate(45)'/>
	<use xlink:href='#gpPt11' id='gpPt12' fill='currentColor' stroke='none'/>
	<path id='gpPt13' stroke-width='0.222' stroke='currentColor' d='M0,1.330 L1.265,0.411 L0.782,-1.067 L-0.782,-1.076 L-1.265,0.411 z'/>
	<use xlink:href='#gpPt13' id='gpPt14' fill='currentColor' stroke='none'/>
	<filter id='textbox' filterUnits='objectBoundingBox' x='0' y='0' height='1' width='1'>
	  <feFlood flood-color='white' flood-opacity='1' result='bgnd'/>
	  <feComposite in='SourceGraphic' in2='bgnd' operator='atop'/>
	</filter>
	<filter id='greybox' filterUnits='objectBoundingBox' x='0' y='0' height='1' width='1'>
	  <feFlood flood-color='lightgrey' flood-opacity='1' result='grey'/>
	  <feComposite in='SourceGraphic' in2='grey' operator='atop'/>
	</filter>
</defs>
<g fill="none" color="white" stroke="currentColor" stroke-width="1.00" stroke-linecap="butt" stroke-linejoin="miter">
</g>
<g fill="none" color="black" stroke="currentColor" stroke-width="1.00" stroke-linecap="butt" stroke-linejoin="miter">
	<path stroke='black'  d='M72.53,422.40 L81.53,422.40 M574.82,422.40 L565.82,422.40  '/>	<g transform="translate(64.14,426.30)" stroke="none" fill="black" font-family="Arial" font-size="12.00"  text-anchor="end">
		<text><tspan font-family="Arial" > 0</tspan></text>
	</g>
</g>
<g fill="none" color="black" stroke="currentColor" stroke-width="1.00" stroke-linecap="butt" stroke-linejoin="miter">
	<path stroke='black'  d='M72.53,341.52 L81.53,341.52 M574.82,341.52 L565.82,341.52  '/>	<g transform="translate(64.14,345.42)" stroke="none" fill="black" font-family="Arial" font-size="12.00"  text-anchor="end">
		<text><tspan font-family="Arial" > 0.2</tspan></text>
	</g>
</g>
<g fill="none" color="black" stroke="currentColor" stroke-width="1.00" stroke-linecap="butt" stroke-linejoin="miter">
	<path stroke='black'  d='M72.53,260.64 L81.53,260.64 M574.82,260.64 L565.82,260.64  '/>	<g transform="translate(64.14,264.54)" stroke="none" fill="black" font-family="Arial" font-size="12.00"  text-anchor="end">
		<text><tspan font-family="Arial" > 0.4</tspan></text>
	</g>
</g>
<g fill="none" color="black" stroke="currentColor" stroke-width="1.00" stroke-linecap="butt" stroke-linejoin="miter">
	<path stroke='black'  d='M72.53,179.77 L81.53,179.77 M574.82,179.77 L565.82,179.77  '/>	<g transform="translate(64.14,183.67)" stroke="none" fill="black" font-family="Arial" font-size="12.00"  text-anchor="end">
		<text><tspan font-family="Arial" > 0.6</tspan></text>
	</g>
</g>
<g fill="none" color="black" stroke="currentColor" stroke-width="1.00" stroke-linecap="butt" stroke-linejoin="miter">
	<path stroke='black'  d='M72.53,98.89 L81.53,98.89 M574.82,98.89 L565.82,98.89  '/>	<g transform="translate(64.14,102.79)" stroke="none" fill="black" font-family="Arial" font-size="12.00"  text-anchor="end">
		<text><tspan font-family="Arial" > 0.8</tspan></text>
	</g>
</g>
<g fill="none" color="black" stroke="currentColor" stroke-width="1.00" stroke-linecap="butt" stroke-linejoin="miter">
	<path stroke='black'  d='M72.53,18.01 L81.53,18.01 M574.82,18.01 L565.82,18.01  '/>	<g transform="translate(64.14,21.91)" stroke="none" fill="black" font-family="Arial" font-size="12.00"  text-anchor="end">
		<text><tspan font-family="Arial" > 1</tspan></text>
	</g>
</g>
<g fill="none" color="black" stroke="currentColor" stroke-width="1.00" stroke-linecap="butt" stroke-linejoin="miter">
	<path stroke='black'  d='M72.53,422.40 L72.53,413.40 M72.53,18.01 L72.53,27.01  '/>	<g transform="translate(72.53,444.30)" stroke="none" fill="black" font-family="Arial" font-size="12.00"  text-anchor="middle">
		<text><tspan font-family="Arial" > 0</tspan></text>
	</g>
</g>
<g fill="none" color="black" stroke="currentColor" stroke-width="1.00" stroke-linecap="butt" stroke-linejoin="miter">
	<path stroke='black'  d='M135.32,422.40 L135.32,413.40 M135.32,18.01 L135.32,27.01  '/>	<g transform="translate(135.32,444.30)" stroke="none" fill="black" font-family="Arial" font-size="12.00"  text-anchor="middle">
		<text><tspan font-family="Arial" > 0.5</tspan></text>
	</g>
</g>
<g fill="none" color="black" stroke="currentColor" stroke-width="1.00" stroke-linecap="butt" stroke-linejoin="miter">
	<path stroke='black'  d='M198.10,422.40 L198.10,413.40 M198.10,18.01 L198.10,27.01  '/>	<g transform="translate(198.10,444.30)" stroke="none" fill="black" font-family="Arial" font-size="12.00"  text-anchor="middle">
		<text><tspan font-family="Arial" > 1</tspan></text>
	</g>
</g>
<g fill="none" color="black" stroke="currentColor" stroke-width="1.00" stroke-linecap="butt" stroke-linejoin="miter">
	<path stroke='black'  d='M260.89,422.40 L260.89,413.40 M260.89,18.01 L260.89,27.01  '/>	<g transform="translate(260.89,444.30)" stroke="none" fill="black" font-family="Arial" font-size="12.00"  text-anchor="middle">
		<text><tspan font-family="Arial" > 1.5</tspan></text>
	</g>
</g>
<g fill="none" color="black" stroke="currentColor" stroke-width="1.00" stroke-linecap="butt" stroke-linejoin="miter">
	<path stroke='black'  d='M323.68,422.40 L323.68,413.40 M323.68,18.01 L323.68,27.01  '/>	<g transform="translate(323.68,444.30)" stroke="none" fill="black" font-family="Arial" font-size="12.00"  text-anchor="middle">
		<text><tspan font-family="Arial" > 2</tspan></text>
	</g>
</g>
<g fill="none" color="black" stroke="currentColor" stroke-width="1.00" stroke-linecap="butt" stroke-linejoin="miter">
	<path stroke='black'  d='M386.46,422.40 L386.46,413.40 M386.46,18.01 L386.46,27.01  '/>	<g transform="translate(386.46,444.30)" stroke="none" fill="black" font-family="Arial" font-size="12.00"  text-anchor="middle">
		<text><tspan font-family="Arial" > 2.5</tspan></text>
	</g>
</g>
<g fill="none" color="black" stroke="currentColor" stroke-width="1.00" stroke-linecap="butt" stroke-linejoin="miter">
	<path stroke='black'  d='M449.25,422.40 L449.25,413.40 M449.25,18.01 L449.25,27.01  '/>	<g transform="translate(449.25,444.30)" stroke="none" fill="black" font-family="Arial" font-size="12.00"  text-anchor="middle">
		<text><tspan font-family="Arial" > 3</tspan></text>
	</g>
</g>
<g fill="none" color="black" stroke="currentColor" stroke-width="1.00" stroke-linecap="butt" stroke-linejoin="miter">
	<path stroke='black'  d='M512.03,422.40 L512.03,413.40 M512.03,18.01 L512.03,27.01  '/>	<g transform="translate(512.03,444.30)" stroke="none" fill="black" font-family="Arial" font-size="12.00"  text-anchor="middle">
		<text><tspan font-family="Arial" > 3.5</tspan></text>
	</g>
</g>
<g fill="none" color="black" stroke="currentColor" stroke-width="1.00" stroke-linecap="butt" stroke-linejoin="miter">
	<path stroke='black'  d='M574.82,422.40 L574.82,413.40 M574.82,18.01 L574.82,27.01  '/>	<g transform="translate(574.82,444.30)" stroke="none" fill="black" font-family="Arial" font-size="12.00"  text-anchor="middle">
		<text><tspan font-family="Arial" > 4</tspan></text>
	</g>
</g>
<g fill="none" color="black" stroke="currentColor" stroke-width="1.00" stroke-linecap="butt" stroke-linejoin="miter">
</g>
<g fill="none" color="black" stroke="currentColor" stroke-width="1.00" stroke-linecap="butt" stroke-linejoin="miter">
	<path stroke='black'  d='M72.53,18.01 L72.53,422.40 L574.82,422.40 L574.82,18.01 L72.53,18.01 Z  '/></g>
<g fill="none" color="black" stroke="currentColor" stroke-width="1.00" stroke-linecap="butt" stroke-linejoin="miter">
	<g transform="translate(19.18,220.21) rotate(270)" stroke="none" fill="black" font-family="Arial" font-size="12.00"  text-anchor="middle">
		<text><tspan font-family="Arial" >Value</tspan></text>
	</g>
</g>
<g fill="none" color="black" stroke="currentColor" stroke-width="1.00" stroke-linecap="butt" stroke-linejoin="miter">
	<g transform="translate(323.67,471.30)" stroke="none" fill="black" font-family="Arial" font-size="12.00"  text-anchor="middle">
		<text><tspan font-family="Arial" >Frames</tspan></text>
	</g>
</g>
<g fill="none" color="black" stroke="currentColor" stroke-width="1.00" stroke-linecap="butt" stroke-linejoin="miter">
</g>
	<g id="gnuplot_plot_1" ><title>'square_oscillator.dat'</title>
<g fill="none" color="black" stroke="currentColor" stroke-width="1.00" stroke-linecap="butt" stroke-linejoin="miter">
	<g stroke='none' shape-rendering='crispEdges'>
		<polygon fill = 'rgb(148,   0, 211)' points = '74.61,18.01 76.70,18.01 78.78,18.01 80.87,18.01 82.95,18.01 85.04,18.01 87.12,18.01 89.21,18.01 91.29,18.01 93.38,18.01 95.46,18.01 97.54,18.01 99.63,18.01 101.71,18.01 103.80,18.01 105.88,18.01
107.97,18.01 110.05,18.01 112.14,18.01 114.22,18.01 116.30,18.01 118.39,18.01 120.47,18.01 122.56,18.01 124.64,18.01 126.73,18.01 128.81,18.01 130.90,18.01 132.98,18.01 135.07,18.01 137.15,422.40 139.23,422.40
141.32,422.40 143.40,422.40 145.49,422.40 147.57,422.40 149.66,422.40 151.74,422.40 153.83,422.40 155.91,422.40 157.99,422.40 160.08,422.40 162.16,422.40 164.25,422.40 166.33,422.40 168.42,422.40 170.50,422.40 172.59,422.40
174.67,422.40 176.76,422.40 178.84,422.40 180.92,422.40 183.01,422.40 185.09,422.40 187.18,422.40 189.26,422.40 191.35,422.40 193.43,422.40 195.52,422.40 197.60,422.40 199.68,18.01 201.77,18.01 203.85,18.01 205.94,18.01
208.02,18.01 210.11,18.01 212.19,18.01 214.28,18.01 216.36,18.01 218.45,18.01 220.53,18.01 222.61,18.01 224.70,18.01 226.78,18.01 228.87,18.01 230.95,18.01 233.04,18.01 235.12,18.01 237.21,18.01 239.29,18.01
241.37,18.01 243.46,18.01 245.54,18.01 247.63,18.01 249.71,18.01 251.80,18.01 253.88,18.01 255.97,18.01 258.05,18.01 260.14,18.01 262.22,422.40 264.30,422.40 266.39,422.40 268.47,422.40 270.56,422.40 272.64,422.40
274.73,422.40 276.81,422.40 278.90,422.40 280.98,422.40 283.06,422.40 285.15,422.40 287.23,422.40 289.32,422.40 291.40,422.40 293.49,422.40 295.57,422.40 297.66,422.40 299.74,422.40 301.83,422.40 303.91,422.40 305.99,422.40
308.08,422.40 310.16,422.40 312.25,422.40 314.33,422.40 316.42,422.40 318.50,422.40 320.59,422.40 322.67,422.40 324.75,18.01 326.84,18.01 328.92,18.01 331.01,18.01 333.09,18.01 335.18,18.01 337.26,18.01 339.35,18.01
341.43,18.01 343.52,18.01 345.60,18.01 347.68,18.01 349.77,18.01 351.85,18.01 353.94,18.01 356.02,18.01 358.11,18.01 360.19,18.01 362.28,18.01 364.36,18.01 366.44,18.01 368.53,18.01 370.61,18.01 372.70,18.01
374.78,18.01 376.87,18.01 378.95,18.01 381.04,18.01 383.12,18.01 385.21,18.01 387.29,422.40 389.37,422.40 391.46,422.40 393.54,422.40 395.63,422.40 397.71,422.40 399.80,422.40 401.88,422.40 403.97,422.40 406.05,422.40
408.14,422.40 410.22,422.40 412.30,422.40 414.39,422.40 416.47,422.40 418.56,422.40 420.64,422.40 422.73,422.40 424.81,422.40 426.90,422.40 428.98,422.40 431.06,422.40 433.15,422.40 435.23,422.40 437.32,422.40 439.40,422.40
441.49,422.40 443.57,422.40 445.66,422.40 447.74,422.40 449.83,18.01 451.91,18.01 453.99,18.01 456.08,18.01 458.16,18.01 460.25,18.01 462.33,18.01 464.42,18.01 466.50,18.01 468.59,18.01 470.67,18.01 472.75,18.01
474.84,18.01 476.92,18.01 479.01,18.01 481.09,18.01 483.18,18.01 485.26,18.01 487.35,18.01 489.43,18.01 491.52,18.01 493.60,18.01 495.68,18.01 497.77,18.01 499.85,18.01 501.94,18.01 504.02,18.01 506.11,18.01
508.19,18.01 510.28,18.01 512.36,422.40 514.44,422.40 516.53,422.40 518.61,422.40 520.70,422.40 522.78,422.40 524.87,422.40 526.95,422.40 529.04,422.40 531.12,422.40 533.21,422.40 535.29,422.40 537.37,422.40 539.46,422.40
541.54,422.40 543.63,422.40 545.71,422.40 547.80,422.40 549.88,422.40 551.97,422.40 554.05,422.40 556.13,422.40 558.22,422.40 560.30,422.40 562.39,422.40 564.47,422.40 566.56,422.40 568.64,422.40 570.73,422.40 572.81,422.40
572.81,422.40 74.61,422.40 '/>
	</g>
</g>
	</g>
<g fill="none" color="white" stroke="rgb(148,   0, 211)" stroke-width="2.00" stroke-linecap="butt" stroke-linejoin="miter">
</g>
<g fill="none" color="black" stroke="currentColor" stroke-width="2.00" stroke-linecap="butt" stroke-linejoin="miter">
</g>
<g fill="none" color="black" stroke="black" stroke-width="1.00" stroke-linecap="butt" stroke-linejoin="miter">
</g>
<g fill="none" color="black" stroke="currentColor" stroke-width="1.00" stroke-linecap="butt" stroke-linejoin="miter">
	<path stroke='black'  d='M72.53,18.01 L72.53,422.40 L574.82,422.40 L574.82,18.01 L72.53,18.01 Z  '/></g>
<g fill="none" color="black" stroke="currentColor" stroke-width="1.00" stroke-linecap="butt" stroke-linejoin="miter">
</g>
</g>
</svg>

