<?xml version="1.0" encoding="utf-8"  standalone="no"?>
<svg 
 width="600" height="480"
 viewBox="0 0 600 480"
 xmlns="http://www.w3.org/2000/svg"
 xmlns:xlink="http://www.w3.org/1999/xlink"
>

<title>Gnuplot</title>
<desc>Produced by GNUPLOT 5.4 patchlevel 3 </desc>

<g id="gnuplot_canvas">

<rect x="0" y="0" width="600" height="480" fill="none"/>
<defs>

	<circle id='gpDot' r='0.5' stroke-width='0.5' stroke='currentColor'/>
	<path id='gpPt0' stroke-width='0.222' stroke='currentColor' d='M-1,0 h2 M0,-1 v2'/>
	<path id='gpPt1' stroke-width='0.222' stroke='currentColor' d='M-1,-1 L1,1 M1,-1 L-1,1'/>
	<path id='gpPt2' stroke-width='0.222' stroke='currentColor' d='M-1,0 L1,0 M0,-1 L0,1 M-1,-1 L1,1 M-1,1 L1,-1'/>
	<rect id='gpPt3' stroke-width='0.222' stroke='currentColor' x='-1' y='-1' width='2' height='2'/>
	<rect id='gpPt4' stroke-width='0.222' stroke='currentColor' fill='currentColor' x='-1' y='-1' width='2' height='2'/>
	<circle id='gpPt5' stroke-width='0.222' stroke='currentColor' cx='0' cy='0' r='1'/>
	<use xlink:href='#gpPt5' id='gpPt6' fill='currentColor' stroke='none'/>
	<path id='gpPt7' stroke-width='0.222' stroke='currentColor' d='M0,-1.33 L-1.33,0.67 L1.33,0.67 z'/>
	<use xlink:href='#gpPt7' id='gpPt8' fill='currentColor' stroke='none'/>
	<use xlink:href='#gpPt7' id='gpPt9' stroke='currentColor' transform='rotate(180)'/>
	<use xlink:href='#gpPt9' id='gpPt10' fill='currentColor' stroke='none'/>
	<use xlink:href='#gpPt3' id='gpPt11' stroke='currentColor' transform='rotate(45)'/>
	<use xlink:href='#gpPt11' id='gpPt12' fill='currentColor' stroke='none'/>
	<path id='gpPt13' stroke-width='0.222' stroke='currentColor' d='M0,1.330 L1.265,0.411 L0.782,-1.067 L-0.782,-1.076 L-1.265,0.411 z'/>
	<use xlink:href='#gpPt13' id='gpPt14' fill='currentColor' stroke='none'/>
	<filter id='textbox' filterUnits='objectBoundingBox' x='0' y='0' height='1' width='1'>
	  <feFlood flood-color='white' flood-opacity='1' result='bgnd'/>
	  <feComposite in='SourceGraphic' in2='bgnd' operator='atop'/>
	</filter>
	<filter id='greybox' filterUnits='objectBoundingBox' x='0' y='0' height='1' width='1'>
	  <feFlood flood-color='lightgrey' flood-opacity='1' result='grey'/>
	  <feComposite in='SourceGraphic' in2='grey' operator='atop'/>
	</filter>
</defs>
<g fill="none" color="white" stroke="currentColor" stroke-width="1.00" stroke-linecap="butt" stroke-linejoin="miter">
</g>
<g fill="none" color="black" stroke="currentColor" stroke-width="1.00" stroke-linecap="butt" stroke-linejoin="miter">
	<path stroke='black'  d='M72.53,422.40 L81.53,422.40 M574.82,422.40 L565.82,422.40  '/>	<g transform="translate(64.14,426.30)" stroke="none" fill="black" font-family="Arial" font-size="12.00"  text-anchor="end">
		<text><tspan font-family="Arial" >-1</tspan></text>
	</g>
</g>
<g fill="none" color="black" stroke="currentColor" stroke-width="1.00" stroke-linecap="butt" stroke-linejoin="miter">
	<path stroke='black'  d='M72.53,321.30 L81.53,321.30 M574.82,321.30 L565.82,321.30  '/>	<g transform="translate(64.14,325.20)" stroke="none" fill="black" font-family="Arial" font-size="12.00"  text-anchor="end">
		<text><tspan font-family="Arial" >-0.5</tspan></text>
	</g>
</g>
<g fill="none" color="black" stroke="currentColor" stroke-width="1.00" stroke-linecap="butt" stroke-linejoin="miter">
	<path stroke='black'  d='M72.53,220.20 L81.53,220.20 M574.82,220.20 L565.82,220.20  '/>	<g transform="translate(64.14,224.10)" stroke="none" fill="black" font-family="Arial" font-size="12.00"  text-anchor="end">
		<text><tspan font-family="Arial" > 0</tspan></text>
	</g>
</g>
<g fill="none" color="black" stroke="currentColor" stroke-width="1.00" stroke-linecap="butt" stroke-linejoin="miter">
	<path stroke='black'  d='M72.53,119.11 L81.53,119.11 M574.82,119.11 L565.82,119.11  '/>	<g transform="translate(64.14,123.01)" stroke="none" fill="black" font-family="Arial" font-size="12.00"  text-anchor="end">
		<text><tspan font-family="Arial" > 0.5</tspan></text>
	</g>
</g>
<g fill="none" color="black" stroke="currentColor" stroke-width="1.00" stroke-linecap="butt" stroke-linejoin="miter">
	<path stroke='black'  d='M72.53,18.01 L81.53,18.01 M574.82,18.01 L565.82,18.01  '/>	<g transform="translate(64.14,21.91)" stroke="none" fill="black" font-family="Arial" font-size="12.00"  text-anchor="end">
		<text><tspan font-family="Arial" > 1</tspan></text>
	</g>
</g>
<g fill="none" color="black" stroke="currentColor" stroke-width="1.00" stroke-linecap="butt" stroke-linejoin="miter">
	<path stroke='black'  d='M72.53,422.40 L72.53,413.40 M72.53,18.01 L72.53,27.01  '/>	<g transform="translate(72.53,444.30)" stroke="none" fill="black" font-family="Arial" font-size="12.00"  text-anchor="middle">
		<text><tspan font-family="Arial" >-1</tspan></text>
	</g>
</g>
<g fill="none" color="black" stroke="currentColor" stroke-width="1.00" stroke-linecap="butt" stroke-linejoin="miter">
	<path stroke='black'  d='M198.10,422.40 L198.10,413.40 M198.10,18.01 L198.10,27.01  '/>	<g transform="translate(198.10,444.30)" stroke="none" fill="black" font-family="Arial" font-size="12.00"  text-anchor="middle">
		<text><tspan font-family="Arial" >-0.5</tspan></text>
	</g>
</g>
<g fill="none" color="black" stroke="currentColor" stroke-width="1.00" stroke-linecap="butt" stroke-linejoin="miter">
	<path stroke='black'  d='M323.68,422.40 L323.68,413.40 M323.68,18.01 L323.68,27.01  '/>	<g transform="translate(323.68,444.30)" stroke="none" fill="black" font-family="Arial" font-size="12.00"  text-anchor="middle">
		<text><tspan font-family="Arial" > 0</tspan></text>
	</g>
</g>
<g fill="none" color="black" stroke="currentColor" stroke-width="1.00" stroke-linecap="butt" stroke-linejoin="miter">
	<path stroke='black'  d='M449.25,422.40 L449.25,413.40 M449.25,18.01 L449.25,27.01  '/>	<g transform="translate(449.25,444.30)" stroke="none" fill="black" font-family="Arial" font-size="12.00"  text-anchor="middle">
		<text><tspan font-family="Arial" > 0.5</tspan></text>
	</g>
</g>
<g fill="none" color="black" stroke="currentColor" stroke-width="1.00" stroke-linecap="butt" stroke-linejoin="miter">
	<path stroke='black'  d='M574.82,422.40 L574.82,413.40 M574.82,18.01 L574.82,27.01  '/>	<g transform="translate(574.82,444.30)" stroke="none" fill="black" font-family="Arial" font-size="12.00"  text-anchor="middle">
		<text><tspan font-family="Arial" > 1</tspan></text>
	</g>
</g>
<g fill="none" color="black" stroke="currentColor" stroke-width="1.00" stroke-linecap="butt" stroke-linejoin="miter">
</g>
<g fill="none" color="black" stroke="currentColor" stroke-width="1.00" stroke-linecap="butt" stroke-linejoin="miter">
	<path stroke='black'  d='M72.53,18.01 L72.53,422.40 L574.82,422.40 L574.82,18.01 L72.53,18.01 Z  '/></g>
<g fill="none" color="black" stroke="currentColor" stroke-width="1.00" stroke-linecap="butt" stroke-linejoin="miter">
	<g transform="translate(19.18,220.21) rotate(270)" stroke="none" fill="black" font-family="Arial" font-size="12.00"  text-anchor="middle">
		<text><tspan font-family="Arial" >Tilt</tspan></text>
	</g>
</g>
<g fill="none" color="black" stroke="currentColor" stroke-width="1.00" stroke-linecap="butt" stroke-linejoin="miter">
	<g transform="translate(323.67,471.30)" stroke="none" fill="black" font-family="Arial" font-size="12.00"  text-anchor="middle">
		<text><tspan font-family="Arial" >Pan</tspan></text>
	</g>
</g>
<g fill="none" color="black" stroke="currentColor" stroke-width="1.00" stroke-linecap="butt" stroke-linejoin="miter">
</g>
	<g id="gnuplot_plot_1" ><title>'Circle-position.dat'</title>
<g fill="none" color="black" stroke="currentColor" stroke-width="1.00" stroke-linecap="butt" stroke-linejoin="miter">
	<path stroke='rgb(148,   0, 211)'  d='M574.73,214.67 L574.45,209.16 L573.99,203.70 L573.36,198.27 L572.54,192.89 L571.56,187.55 L570.40,182.26 L569.07,177.02
		L567.57,171.83 L565.91,166.68 L564.09,161.60 L562.11,156.57 L559.97,151.59 L557.67,146.68 L555.22,141.82 L552.62,137.03
		L549.88,132.31 L546.98,127.65 L543.95,123.06 L540.77,118.55 L537.46,114.10 L534.00,109.73 L530.42,105.44 L526.70,101.23
		L522.86,97.09 L518.88,93.04 L514.79,89.07 L510.57,85.19 L506.23,81.40 L501.77,77.70 L497.20,74.09 L492.52,70.57
		L487.72,67.15 L482.82,63.83 L477.81,60.61 L472.71,57.49 L467.49,54.47 L462.19,51.56 L456.78,48.75 L451.28,46.05
		L445.69,43.47 L440.02,41.00 L434.25,38.64 L428.40,36.40 L422.47,34.28 L416.46,32.28 L410.38,30.40 L404.22,28.65
		L397.98,27.02 L391.68,25.52 L385.31,24.15 L378.88,22.92 L372.38,21.82 L365.82,20.85 L359.20,20.02 L352.53,19.33
		L345.81,18.79 L339.03,18.38 L332.21,18.12 L325.34,18.01 L314.35,18.05 L302.59,18.24 L291.40,18.57 L280.77,19.05
		L270.67,19.67 L261.10,20.43 L252.04,21.33 L243.47,22.37 L235.38,23.54 L227.75,24.85 L220.56,26.28 L213.80,27.85
		L207.45,29.54 L201.49,31.36 L195.91,33.30 L190.70,35.36 L185.83,37.55 L181.30,39.85 L177.08,42.26 L173.15,44.80
		L169.51,47.44 L166.13,50.19 L163.01,53.05 L160.11,56.02 L157.44,59.09 L154.96,62.26 L152.67,65.54 L150.55,68.91
		L148.59,72.38 L146.75,75.95 L145.04,79.61 L143.44,83.36 L141.92,87.19 L140.47,91.12 L139.08,95.13 L137.73,99.22
		L136.40,103.40 L135.08,107.65 L133.76,111.99 L132.40,116.40 L131.01,120.88 L129.55,125.43 L128.03,130.06 L126.41,134.75
		L124.69,139.51 L122.85,144.33 L120.87,149.22 L118.73,154.16 L116.42,159.17 L113.93,164.23 L111.24,169.34 L108.32,174.51
		L105.17,179.73 L101.77,185.00 L98.10,190.31 L94.15,195.67 L89.90,201.08 L85.33,206.52 L80.44,212.01 L75.19,217.53
		L75.38,225.36 L80.62,234.94 L85.51,244.06 L90.06,252.73 L94.30,260.96 L98.24,268.76 L101.90,276.15 L105.29,283.15
		L108.43,289.75 L111.34,295.99 L114.03,301.86 L116.51,307.39 L118.81,312.58 L120.94,317.45 L122.92,322.01 L124.76,326.28
		L126.47,330.26 L128.08,333.98 L129.61,337.43 L131.06,340.65 L132.45,343.64 L133.80,346.40 L135.13,348.97 L136.45,351.34
		L137.78,353.54 L139.13,355.57 L140.52,357.45 L141.97,359.18 L143.49,360.80 L145.10,362.30 L146.82,363.70 L148.65,365.01
		L150.63,366.25 L152.75,367.42 L155.05,368.55 L157.53,369.65 L160.21,370.72 L163.12,371.78 L166.25,372.85 L169.64,373.93
		L173.29,375.05 L177.22,376.20 L181.46,377.42 L186.00,378.70 L190.88,380.06 L196.11,381.52 L201.70,383.09 L207.67,384.78
		L214.03,386.60 L220.81,388.57 L228.02,390.70 L235.67,393.00 L243.78,395.49 L252.36,398.18 L261.44,401.08 L271.03,404.20
		L281.14,407.57 L291.79,411.18 L303.01,415.06 L314.79,419.22 L325.59,421.16 L332.45,416.88 L339.28,412.88 L346.05,409.15
		L352.77,405.67 L359.44,402.44 L366.06,399.44 L372.61,396.66 L379.11,394.09 L385.54,391.70 L391.91,389.50 L398.21,387.46
		L404.44,385.57 L410.60,383.83 L416.68,382.21 L422.69,380.70 L428.62,379.30 L434.46,377.98 L440.22,376.74 L445.90,375.56
		L451.48,374.42 L456.98,373.33 L462.38,372.26 L467.68,371.19 L472.89,370.13 L478.00,369.04 L483.00,367.93 L487.90,366.78
		L492.69,365.57 L497.37,364.29 L501.93,362.93 L506.39,361.48 L510.72,359.92 L514.94,358.24 L519.03,356.42 L523.00,354.46
		L526.84,352.34 L530.55,350.05 L534.13,347.57 L537.58,344.90 L540.89,342.01 L544.06,338.90 L547.09,335.55 L549.98,331.95
		L552.72,328.09 L555.31,323.95 L557.76,319.52 L560.05,314.79 L562.18,309.74 L564.16,304.37 L565.98,298.65 L567.63,292.58
		L569.12,286.14 L570.44,279.32 L571.60,272.11 L572.58,264.49 L573.38,256.45 L574.01,247.98 L574.46,239.06 L574.73,229.69
		L574.82,220.00 L574.72,214.47 L574.44,208.96 L573.97,203.50 L573.33,198.08 L572.51,192.70 L571.52,187.36 L570.35,182.07
		L569.02,176.83 L567.52,171.64 L565.85,166.50 L564.02,161.41 L562.03,156.38 L559.89,151.41 L557.59,146.50 L555.13,141.65
		L552.53,136.86 L549.78,132.14 L546.88,127.48 L543.84,122.90 L540.65,118.38 L537.33,113.94 L533.88,109.58 L530.29,105.29
		L526.57,101.07 L522.71,96.94 L518.74,92.90 L514.64,88.93 L510.41,85.06 L506.07,81.27 L501.61,77.57 L497.03,73.96
		L492.35,70.45 L487.55,67.03 L482.64,63.71 L477.63,60.49 L472.52,57.38 L467.30,54.36 L461.99,51.45 L456.58,48.65
		L451.08,45.96 L445.49,43.38 L439.81,40.91 L434.04,38.56 L428.19,36.32 L422.26,34.21 L416.24,32.21 L410.16,30.34
		L403.99,28.59 L397.76,26.97 L391.45,25.47 L385.08,24.11 L378.64,22.88 L372.14,21.78 L365.58,20.82 L358.96,19.99
		L352.29,19.31 L345.56,18.77 L338.79,18.37 L331.96,18.12  '/></g>
	</g>
<g fill="none" color="white" stroke="rgb(148,   0, 211)" stroke-width="2.00" stroke-linecap="butt" stroke-linejoin="miter">
</g>
<g fill="none" color="black" stroke="currentColor" stroke-width="2.00" stroke-linecap="butt" stroke-linejoin="miter">
</g>
<g fill="none" color="black" stroke="black" stroke-width="1.00" stroke-linecap="butt" stroke-linejoin="miter">
</g>
<g fill="none" color="black" stroke="currentColor" stroke-width="1.00" stroke-linecap="butt" stroke-linejoin="miter">
	<path stroke='black'  d='M72.53,18.01 L72.53,422.40 L574.82,422.40 L574.82,18.01 L72.53,18.01 Z  '/></g>
<g fill="none" color="black" stroke="currentColor" stroke-width="1.00" stroke-linecap="butt" stroke-linejoin="miter">
</g>
</g>
</svg>

