<?xml version="1.0" encoding="utf-8"  standalone="no"?>
<svg 
 width="600" height="480"
 viewBox="0 0 600 480"
 xmlns="http://www.w3.org/2000/svg"
 xmlns:xlink="http://www.w3.org/1999/xlink"
>

<title>Gnuplot</title>
<desc>Produced by GNUPLOT 5.4 patchlevel 3 </desc>

<g id="gnuplot_canvas">

<rect x="0" y="0" width="600" height="480" fill="none"/>
<defs>

	<circle id='gpDot' r='0.5' stroke-width='0.5' stroke='currentColor'/>
	<path id='gpPt0' stroke-width='0.222' stroke='currentColor' d='M-1,0 h2 M0,-1 v2'/>
	<path id='gpPt1' stroke-width='0.222' stroke='currentColor' d='M-1,-1 L1,1 M1,-1 L-1,1'/>
	<path id='gpPt2' stroke-width='0.222' stroke='currentColor' d='M-1,0 L1,0 M0,-1 L0,1 M-1,-1 L1,1 M-1,1 L1,-1'/>
	<rect id='gpPt3' stroke-width='0.222' stroke='currentColor' x='-1' y='-1' width='2' height='2'/>
	<rect id='gpPt4' stroke-width='0.222' stroke='currentColor' fill='currentColor' x='-1' y='-1' width='2' height='2'/>
	<circle id='gpPt5' stroke-width='0.222' stroke='currentColor' cx='0' cy='0' r='1'/>
	<use xlink:href='#gpPt5' id='gpPt6' fill='currentColor' stroke='none'/>
	<path id='gpPt7' stroke-width='0.222' stroke='currentColor' d='M0,-1.33 L-1.33,0.67 L1.33,0.67 z'/>
	<use xlink:href='#gpPt7' id='gpPt8' fill='currentColor' stroke='none'/>
	<use xlink:href='#gpPt7' id='gpPt9' stroke='currentColor' transform='rotate(180)'/>
	<use xlink:href='#gpPt9' id='gpPt10' fill='currentColor' stroke='none'/>
	<use xlink:href='#gpPt3' id='gpPt11' stroke='currentColor' transform='rotate(45)'/>
	<use xlink:href='#gpPt11' id='gpPt12' fill='currentColor' stroke='none'/>
	<path id='gpPt13' stroke-width='0.222' stroke='currentColor' d='M0,1.330 L1.265,0.411 L0.782,-1.067 L-0.782,-1.076 L-1.265,0.411 z'/>
	<use xlink:href='#gpPt13' id='gpPt14' fill='currentColor' stroke='none'/>
	<filter id='textbox' filterUnits='objectBoundingBox' x='0' y='0' height='1' width='1'>
	  <feFlood flood-color='white' flood-opacity='1' result='bgnd'/>
	  <feComposite in='SourceGraphic' in2='bgnd' operator='atop'/>
	</filter>
	<filter id='greybox' filterUnits='objectBoundingBox' x='0' y='0' height='1' width='1'>
	  <feFlood flood-color='lightgrey' flood-opacity='1' result='grey'/>
	  <feComposite in='SourceGraphic' in2='grey' operator='atop'/>
	</filter>
</defs>
<g fill="none" color="white" stroke="currentColor" stroke-width="1.00" stroke-linecap="butt" stroke-linejoin="miter">
</g>
<g fill="none" color="black" stroke="currentColor" stroke-width="1.00" stroke-linecap="butt" stroke-linejoin="miter">
	<path stroke='black'  d='M72.53,422.40 L81.53,422.40 M574.82,422.40 L565.82,422.40  '/>	<g transform="translate(64.14,426.30)" stroke="none" fill="black" font-family="Arial" font-size="12.00"  text-anchor="end">
		<text><tspan font-family="Arial" >-1</tspan></text>
	</g>
</g>
<g fill="none" color="black" stroke="currentColor" stroke-width="1.00" stroke-linecap="butt" stroke-linejoin="miter">
	<path stroke='black'  d='M72.53,321.30 L81.53,321.30 M574.82,321.30 L565.82,321.30  '/>	<g transform="translate(64.14,325.20)" stroke="none" fill="black" font-family="Arial" font-size="12.00"  text-anchor="end">
		<text><tspan font-family="Arial" >-0.5</tspan></text>
	</g>
</g>
<g fill="none" color="black" stroke="currentColor" stroke-width="1.00" stroke-linecap="butt" stroke-linejoin="miter">
	<path stroke='black'  d='M72.53,220.20 L81.53,220.20 M574.82,220.20 L565.82,220.20  '/>	<g transform="translate(64.14,224.10)" stroke="none" fill="black" font-family="Arial" font-size="12.00"  text-anchor="end">
		<text><tspan font-family="Arial" > 0</tspan></text>
	</g>
</g>
<g fill="none" color="black" stroke="currentColor" stroke-width="1.00" stroke-linecap="butt" stroke-linejoin="miter">
	<path stroke='black'  d='M72.53,119.11 L81.53,119.11 M574.82,119.11 L565.82,119.11  '/>	<g transform="translate(64.14,123.01)" stroke="none" fill="black" font-family="Arial" font-size="12.00"  text-anchor="end">
		<text><tspan font-family="Arial" > 0.5</tspan></text>
	</g>
</g>
<g fill="none" color="black" stroke="currentColor" stroke-width="1.00" stroke-linecap="butt" stroke-linejoin="miter">
	<path stroke='black'  d='M72.53,18.01 L81.53,18.01 M574.82,18.01 L565.82,18.01  '/>	<g transform="translate(64.14,21.91)" stroke="none" fill="black" font-family="Arial" font-size="12.00"  text-anchor="end">
		<text><tspan font-family="Arial" > 1</tspan></text>
	</g>
</g>
<g fill="none" color="black" stroke="currentColor" stroke-width="1.00" stroke-linecap="butt" stroke-linejoin="miter">
	<path stroke='black'  d='M72.53,422.40 L72.53,413.40 M72.53,18.01 L72.53,27.01  '/>	<g transform="translate(72.53,444.30)" stroke="none" fill="black" font-family="Arial" font-size="12.00"  text-anchor="middle">
		<text><tspan font-family="Arial" > 0</tspan></text>
	</g>
</g>
<g fill="none" color="black" stroke="currentColor" stroke-width="1.00" stroke-linecap="butt" stroke-linejoin="miter">
	<path stroke='black'  d='M122.76,422.40 L122.76,413.40 M122.76,18.01 L122.76,27.01  '/>	<g transform="translate(122.76,444.30)" stroke="none" fill="black" font-family="Arial" font-size="12.00"  text-anchor="middle">
		<text><tspan font-family="Arial" > 0.2</tspan></text>
	</g>
</g>
<g fill="none" color="black" stroke="currentColor" stroke-width="1.00" stroke-linecap="butt" stroke-linejoin="miter">
	<path stroke='black'  d='M172.99,422.40 L172.99,413.40 M172.99,18.01 L172.99,27.01  '/>	<g transform="translate(172.99,444.30)" stroke="none" fill="black" font-family="Arial" font-size="12.00"  text-anchor="middle">
		<text><tspan font-family="Arial" > 0.4</tspan></text>
	</g>
</g>
<g fill="none" color="black" stroke="currentColor" stroke-width="1.00" stroke-linecap="butt" stroke-linejoin="miter">
	<path stroke='black'  d='M223.22,422.40 L223.22,413.40 M223.22,18.01 L223.22,27.01  '/>	<g transform="translate(223.22,444.30)" stroke="none" fill="black" font-family="Arial" font-size="12.00"  text-anchor="middle">
		<text><tspan font-family="Arial" > 0.6</tspan></text>
	</g>
</g>
<g fill="none" color="black" stroke="currentColor" stroke-width="1.00" stroke-linecap="butt" stroke-linejoin="miter">
	<path stroke='black'  d='M273.45,422.40 L273.45,413.40 M273.45,18.01 L273.45,27.01  '/>	<g transform="translate(273.45,444.30)" stroke="none" fill="black" font-family="Arial" font-size="12.00"  text-anchor="middle">
		<text><tspan font-family="Arial" > 0.8</tspan></text>
	</g>
</g>
<g fill="none" color="black" stroke="currentColor" stroke-width="1.00" stroke-linecap="butt" stroke-linejoin="miter">
	<path stroke='black'  d='M323.68,422.40 L323.68,413.40 M323.68,18.01 L323.68,27.01  '/>	<g transform="translate(323.68,444.30)" stroke="none" fill="black" font-family="Arial" font-size="12.00"  text-anchor="middle">
		<text><tspan font-family="Arial" > 1</tspan></text>
	</g>
</g>
<g fill="none" color="black" stroke="currentColor" stroke-width="1.00" stroke-linecap="butt" stroke-linejoin="miter">
	<path stroke='black'  d='M373.90,422.40 L373.90,413.40 M373.90,18.01 L373.90,27.01  '/>	<g transform="translate(373.90,444.30)" stroke="none" fill="black" font-family="Arial" font-size="12.00"  text-anchor="middle">
		<text><tspan font-family="Arial" > 1.2</tspan></text>
	</g>
</g>
<g fill="none" color="black" stroke="currentColor" stroke-width="1.00" stroke-linecap="butt" stroke-linejoin="miter">
	<path stroke='black'  d='M424.13,422.40 L424.13,413.40 M424.13,18.01 L424.13,27.01  '/>	<g transform="translate(424.13,444.30)" stroke="none" fill="black" font-family="Arial" font-size="12.00"  text-anchor="middle">
		<text><tspan font-family="Arial" > 1.4</tspan></text>
	</g>
</g>
<g fill="none" color="black" stroke="currentColor" stroke-width="1.00" stroke-linecap="butt" stroke-linejoin="miter">
	<path stroke='black'  d='M474.36,422.40 L474.36,413.40 M474.36,18.01 L474.36,27.01  '/>	<g transform="translate(474.36,444.30)" stroke="none" fill="black" font-family="Arial" font-size="12.00"  text-anchor="middle">
		<text><tspan font-family="Arial" > 1.6</tspan></text>
	</g>
</g>
<g fill="none" color="black" stroke="currentColor" stroke-width="1.00" stroke-linecap="butt" stroke-linejoin="miter">
	<path stroke='black'  d='M524.59,422.40 L524.59,413.40 M524.59,18.01 L524.59,27.01  '/>	<g transform="translate(524.59,444.30)" stroke="none" fill="black" font-family="Arial" font-size="12.00"  text-anchor="middle">
		<text><tspan font-family="Arial" > 1.8</tspan></text>
	</g>
</g>
<g fill="none" color="black" stroke="currentColor" stroke-width="1.00" stroke-linecap="butt" stroke-linejoin="miter">
	<path stroke='black'  d='M574.82,422.40 L574.82,413.40 M574.82,18.01 L574.82,27.01  '/>	<g transform="translate(574.82,444.30)" stroke="none" fill="black" font-family="Arial" font-size="12.00"  text-anchor="middle">
		<text><tspan font-family="Arial" > 2</tspan></text>
	</g>
</g>
<g fill="none" color="black" stroke="currentColor" stroke-width="1.00" stroke-linecap="butt" stroke-linejoin="miter">
</g>
<g fill="none" color="black" stroke="currentColor" stroke-width="1.00" stroke-linecap="butt" stroke-linejoin="miter">
	<path stroke='black'  d='M72.53,18.01 L72.53,422.40 L574.82,422.40 L574.82,18.01 L72.53,18.01 Z  '/></g>
<g fill="none" color="black" stroke="currentColor" stroke-width="1.00" stroke-linecap="butt" stroke-linejoin="miter">
	<g transform="translate(19.18,220.21) rotate(270)" stroke="none" fill="black" font-family="Arial" font-size="12.00"  text-anchor="middle">
		<text><tspan font-family="Arial" >Value</tspan></text>
	</g>
</g>
<g fill="none" color="black" stroke="currentColor" stroke-width="1.00" stroke-linecap="butt" stroke-linejoin="miter">
	<g transform="translate(323.67,471.30)" stroke="none" fill="black" font-family="Arial" font-size="12.00"  text-anchor="middle">
		<text><tspan font-family="Arial" >Frames</tspan></text>
	</g>
</g>
<g fill="none" color="black" stroke="currentColor" stroke-width="1.00" stroke-linecap="butt" stroke-linejoin="miter">
</g>
	<g id="gnuplot_plot_1" ><title>1 Intensity</title>
<g fill="none" color="black" stroke="currentColor" stroke-width="1.00" stroke-linecap="butt" stroke-linejoin="miter">
	<g transform="translate(507.09,39.91)" stroke="none" fill="black" font-family="Arial" font-size="12.00"  text-anchor="end">
		<text><tspan font-family="Arial" >1 Intensity</tspan></text>
	</g>
</g>
<g fill="none" color="black" stroke="currentColor" stroke-width="1.00" stroke-linecap="butt" stroke-linejoin="miter">
	<path stroke='rgb(148,   0, 211)'  d='M515.48,36.01 L558.04,36.01 M76.70,220.20 L80.87,220.20 L85.04,220.20 L89.21,220.20 L93.38,220.20 L97.54,220.20
		L101.71,220.20 L105.88,220.20 L110.05,220.20 L114.22,220.20 L118.39,220.20 L122.56,220.20 L126.73,220.20 L130.90,220.20
		L135.07,220.20 L139.23,220.20 L143.40,220.20 L147.57,220.20 L151.74,220.20 L155.91,220.20 L160.08,220.20 L164.25,220.20
		L168.42,220.20 L172.59,220.20 L176.76,220.20 L180.92,220.20 L185.09,220.20 L189.26,220.20 L193.43,220.20 L197.60,220.20
		L201.77,220.20 L205.94,220.20 L210.11,220.20 L214.28,220.20 L218.45,220.20 L222.61,220.20 L226.78,220.20 L230.95,220.20
		L235.12,220.20 L239.29,220.20 L243.46,220.20 L247.63,220.20 L251.80,220.20 L255.97,220.20 L260.14,220.20 L264.30,220.20
		L268.47,220.20 L272.64,220.20 L276.81,220.20 L280.98,220.20 L285.15,220.20 L289.32,220.20 L293.49,220.20 L297.66,220.20
		L301.83,220.20 L305.99,220.20 L310.16,220.20 L314.33,220.20 L318.50,220.20 L322.67,220.20 L326.84,220.20 L331.01,220.20
		L335.18,220.20 L339.35,220.20 L343.52,220.20 L347.68,220.20 L351.85,220.20 L356.02,220.20 L360.19,220.20 L364.36,220.20
		L368.53,220.20 L372.70,220.20 L376.87,220.20 L381.04,220.20 L385.21,220.20 L389.37,220.20 L393.54,220.20 L397.71,220.20
		L401.88,220.20 L406.05,220.20 L410.22,220.20 L414.39,220.20 L418.56,220.20 L422.73,220.20 L426.90,220.20 L431.06,220.20
		L435.23,220.20 L439.40,220.20 L443.57,220.20 L447.74,220.20 L451.91,220.20 L456.08,220.20 L460.25,220.20 L464.42,220.20
		L468.59,220.20 L472.75,220.20 L476.92,220.20 L481.09,220.20 L485.26,220.20 L489.43,220.20 L493.60,220.20 L497.77,220.20
		L501.94,220.20 L506.11,220.20 L510.28,220.20 L514.44,220.20 L518.61,220.20 L522.78,220.20 L526.95,220.20 L531.12,220.20
		L535.29,220.20 L539.46,220.20 L543.63,220.20 L547.80,220.20 L551.97,220.20 L556.13,220.20 L560.30,220.20 L564.47,220.20
		L568.64,220.20 L572.81,220.20  '/></g>
	</g>
	<g id="gnuplot_plot_2" ><title>2 Intensity</title>
<g fill="none" color="black" stroke="currentColor" stroke-width="1.00" stroke-linecap="butt" stroke-linejoin="miter">
	<g transform="translate(507.09,57.91)" stroke="none" fill="black" font-family="Arial" font-size="12.00"  text-anchor="end">
		<text><tspan font-family="Arial" >2 Intensity</tspan></text>
	</g>
</g>
<g fill="none" color="black" stroke="currentColor" stroke-width="1.00" stroke-linecap="butt" stroke-linejoin="miter">
	<path stroke='rgb(  0, 158, 115)'  d='M515.48,54.01 L558.04,54.01 M76.70,219.37 L80.87,218.53 L85.04,217.69 L89.21,216.85 L93.38,216.01 L97.54,215.17
		L101.71,214.33 L105.88,213.49 L110.05,212.65 L114.22,211.81 L118.39,210.97 L122.56,210.14 L126.73,209.30 L130.90,208.46
		L135.07,207.62 L139.23,206.78 L143.40,205.94 L147.57,205.10 L151.74,204.26 L155.91,203.42 L160.08,202.58 L164.25,201.74
		L168.42,200.91 L172.59,200.07 L176.76,199.23 L180.92,198.39 L185.09,197.55 L189.26,196.71 L193.43,195.87 L197.60,195.03
		L201.77,194.19 L205.94,193.35 L210.11,192.51 L214.28,191.68 L218.45,190.84 L222.61,190.00 L226.78,189.16 L230.95,188.32
		L235.12,187.48 L239.29,186.64 L243.46,185.80 L247.63,184.96 L251.80,184.12 L255.97,183.28 L260.14,182.45 L264.30,181.61
		L268.47,180.77 L272.64,179.93 L276.81,179.09 L280.98,178.25 L285.15,177.41 L289.32,176.57 L293.49,175.73 L297.66,174.89
		L301.83,174.05 L305.99,173.21 L310.16,172.38 L314.33,171.54 L318.50,170.70 L322.67,169.86 L326.84,219.57 L331.01,218.73
		L335.18,217.89 L339.35,217.05 L343.52,216.21 L347.68,215.37 L351.85,214.53 L356.02,213.69 L360.19,212.86 L364.36,212.02
		L368.53,211.18 L372.70,210.34 L376.87,209.50 L381.04,208.66 L385.21,207.82 L389.37,206.98 L393.54,206.14 L397.71,205.30
		L401.88,204.46 L406.05,203.63 L410.22,202.79 L414.39,201.95 L418.56,201.11 L422.73,200.27 L426.90,199.43 L431.06,198.59
		L435.23,197.75 L439.40,196.91 L443.57,196.07 L447.74,195.23 L451.91,194.39 L456.08,193.56 L460.25,192.72 L464.42,191.88
		L468.59,191.04 L472.75,190.20 L476.92,189.36 L481.09,188.52 L485.26,187.68 L489.43,186.84 L493.60,186.00 L497.77,185.16
		L501.94,184.33 L506.11,183.49 L510.28,182.65 L514.44,181.81 L518.61,180.97 L522.78,180.13 L526.95,179.29 L531.12,178.45
		L535.29,177.61 L539.46,176.77 L543.63,175.93 L547.80,175.10 L551.97,174.26 L556.13,173.42 L560.30,172.58 L564.47,171.74
		L568.64,170.90 L572.81,170.06  '/></g>
	</g>
	<g id="gnuplot_plot_3" ><title>3 Intensity</title>
<g fill="none" color="black" stroke="currentColor" stroke-width="1.00" stroke-linecap="butt" stroke-linejoin="miter">
	<g transform="translate(507.09,75.91)" stroke="none" fill="black" font-family="Arial" font-size="12.00"  text-anchor="end">
		<text><tspan font-family="Arial" >3 Intensity</tspan></text>
	</g>
</g>
<g fill="none" color="black" stroke="currentColor" stroke-width="1.00" stroke-linecap="butt" stroke-linejoin="miter">
	<path stroke='rgb( 86, 180, 233)'  d='M515.48,72.01 L558.04,72.01 M76.70,218.53 L80.87,216.85 L85.04,215.17 L89.21,213.49 L93.38,211.81 L97.54,210.14
		L101.71,208.46 L105.88,206.78 L110.05,205.10 L114.22,203.42 L118.39,201.74 L122.56,200.07 L126.73,198.39 L130.90,196.71
		L135.07,195.03 L139.23,193.35 L143.40,191.68 L147.57,190.00 L151.74,188.32 L155.91,186.64 L160.08,184.96 L164.25,183.28
		L168.42,181.61 L172.59,179.93 L176.76,178.25 L180.92,176.57 L185.09,174.89 L189.26,173.21 L193.43,171.54 L197.60,169.86
		L201.77,168.18 L205.94,166.50 L210.11,164.82 L214.28,163.15 L218.45,161.47 L222.61,159.79 L226.78,158.11 L230.95,156.43
		L235.12,154.75 L239.29,153.08 L243.46,151.40 L247.63,149.72 L251.80,148.04 L255.97,146.36 L260.14,144.69 L264.30,143.01
		L268.47,141.33 L272.64,139.65 L276.81,137.97 L280.98,136.29 L285.15,134.62 L289.32,132.94 L293.49,131.26 L297.66,129.58
		L301.83,127.90 L305.99,126.22 L310.16,124.55 L314.33,122.87 L318.50,121.19 L322.67,119.51 L326.84,218.93 L331.01,217.25
		L335.18,215.57 L339.35,213.90 L343.52,212.22 L347.68,210.54 L351.85,208.86 L356.02,207.18 L360.19,205.51 L364.36,203.83
		L368.53,202.15 L372.70,200.47 L376.87,198.79 L381.04,197.11 L385.21,195.44 L389.37,193.76 L393.54,192.08 L397.71,190.40
		L401.88,188.72 L406.05,187.05 L410.22,185.37 L414.39,183.69 L418.56,182.01 L422.73,180.33 L426.90,178.65 L431.06,176.98
		L435.23,175.30 L439.40,173.62 L443.57,171.94 L447.74,170.26 L451.91,168.58 L456.08,166.91 L460.25,165.23 L464.42,163.55
		L468.59,161.87 L472.75,160.19 L476.92,158.52 L481.09,156.84 L485.26,155.16 L489.43,153.48 L493.60,151.80 L497.77,150.12
		L501.94,148.45 L506.11,146.77 L510.28,145.09 L514.44,143.41 L518.61,141.73 L522.78,140.05 L526.95,138.38 L531.12,136.70
		L535.29,135.02 L539.46,133.34 L543.63,131.66 L547.80,129.99 L551.97,128.31 L556.13,126.63 L560.30,124.95 L564.47,123.27
		L568.64,121.59 L572.81,119.92  '/></g>
	</g>
	<g id="gnuplot_plot_4" ><title>4 Intensity</title>
<g fill="none" color="black" stroke="currentColor" stroke-width="1.00" stroke-linecap="butt" stroke-linejoin="miter">
	<g transform="translate(507.09,93.91)" stroke="none" fill="black" font-family="Arial" font-size="12.00"  text-anchor="end">
		<text><tspan font-family="Arial" >4 Intensity</tspan></text>
	</g>
</g>
<g fill="none" color="black" stroke="currentColor" stroke-width="1.00" stroke-linecap="butt" stroke-linejoin="miter">
	<path stroke='rgb(230, 159,   0)'  d='M515.48,90.01 L558.04,90.01 M76.70,217.69 L80.87,215.17 L85.04,212.65 L89.21,210.14 L93.38,207.62 L97.54,205.10
		L101.71,202.58 L105.88,200.07 L110.05,197.55 L114.22,195.03 L118.39,192.51 L122.56,190.00 L126.73,187.48 L130.90,184.96
		L135.07,182.45 L139.23,179.93 L143.40,177.41 L147.57,174.89 L151.74,172.38 L155.91,169.86 L160.08,167.34 L164.25,164.82
		L168.42,162.31 L172.59,159.79 L176.76,157.27 L180.92,154.75 L185.09,152.24 L189.26,149.72 L193.43,147.20 L197.60,144.69
		L201.77,142.17 L205.94,139.65 L210.11,137.13 L214.28,134.62 L218.45,132.10 L222.61,129.58 L226.78,127.06 L230.95,124.55
		L235.12,122.03 L239.29,119.51 L243.46,116.99 L247.63,114.48 L251.80,111.96 L255.97,109.44 L260.14,106.93 L264.30,104.41
		L268.47,101.89 L272.64,99.37 L276.81,96.86 L280.98,94.34 L285.15,91.82 L289.32,89.30 L293.49,86.79 L297.66,84.27
		L301.83,81.75 L305.99,79.23 L310.16,76.72 L314.33,74.20 L318.50,71.68 L322.67,69.17 L326.84,218.29 L331.01,215.78
		L335.18,213.26 L339.35,210.74 L343.52,208.22 L347.68,205.71 L351.85,203.19 L356.02,200.67 L360.19,198.16 L364.36,195.64
		L368.53,193.12 L372.70,190.60 L376.87,188.09 L381.04,185.57 L385.21,183.05 L389.37,180.53 L393.54,178.02 L397.71,175.50
		L401.88,172.98 L406.05,170.47 L410.22,167.95 L414.39,165.43 L418.56,162.91 L422.73,160.40 L426.90,157.88 L431.06,155.36
		L435.23,152.84 L439.40,150.33 L443.57,147.81 L447.74,145.29 L451.91,142.77 L456.08,140.26 L460.25,137.74 L464.42,135.22
		L468.59,132.71 L472.75,130.19 L476.92,127.67 L481.09,125.15 L485.26,122.64 L489.43,120.12 L493.60,117.60 L497.77,115.08
		L501.94,112.57 L506.11,110.05 L510.28,107.53 L514.44,105.01 L518.61,102.50 L522.78,99.98 L526.95,97.46 L531.12,94.95
		L535.29,92.43 L539.46,89.91 L543.63,87.39 L547.80,84.88 L551.97,82.36 L556.13,79.84 L560.30,77.32 L564.47,74.81
		L568.64,72.29 L572.81,69.77  '/></g>
	</g>
<g fill="none" color="white" stroke="rgb(230, 159,   0)" stroke-width="2.00" stroke-linecap="butt" stroke-linejoin="miter">
</g>
<g fill="none" color="black" stroke="currentColor" stroke-width="2.00" stroke-linecap="butt" stroke-linejoin="miter">
</g>
<g fill="none" color="black" stroke="black" stroke-width="1.00" stroke-linecap="butt" stroke-linejoin="miter">
</g>
<g fill="none" color="black" stroke="currentColor" stroke-width="1.00" stroke-linecap="butt" stroke-linejoin="miter">
	<path stroke='black'  d='M72.53,18.01 L72.53,422.40 L574.82,422.40 L574.82,18.01 L72.53,18.01 Z  '/></g>
<g fill="none" color="black" stroke="currentColor" stroke-width="1.00" stroke-linecap="butt" stroke-linejoin="miter">
</g>
</g>
</svg>

